module gitlab.com/Kira37/user-registration

go 1.21.6

require (
	github.com/cucumber/godog v0.14.1
	github.com/gin-gonic/gin v1.10.0
	github.com/go-ozzo/ozzo-validation v3.6.0+incompatible
	github.com/golang-jwt/jwt v3.2.2+incompatible
	github.com/joho/godotenv v1.5.1
	github.com/joomcode/errorx v1.1.1
	github.com/lib/pq v1.10.9
	go.uber.org/zap v1.27.0
	golang.org/x/crypto v0.23.0
)

require (
	github.com/cucumber/gherkin/go/v26 v26.2.0 // indirect
	github.com/cucumber/messages/go/v21 v21.0.1 // indirect
	github.com/go-ozzo/ozzo-validation/v4 v4.3.0 // indirect
	github.com/gofrs/uuid v4.3.1+incompatible // indirect
	github.com/hashicorp/go-immutable-radix v1.3.1 // indirect
	github.com/hashicorp/go-memdb v1.3.4 // indirect
	github.com/hashicorp/golang-lru v0.5.4 // indirect
	github.com/spf13/pflag v1.0.5 // indirect
)

require (
	github.com/asaskevich/govalidator v0.0.0-20230301143203-a9d515a09cc2 // indirect
	github.com/bytedance/sonic v1.11.6 // indirect
	github.com/bytedance/sonic/loader v0.1.1 // indirect
	github.com/cloudwego/base64x v0.1.4 // indirect
	github.com/cloudwego/iasm v0.2.0 // indirect
	github.com/gabriel-vasile/mimetype v1.4.3 // indirect
	github.com/gin-contrib/sse v0.1.0 // indirect
	github.com/go-playground/locales v0.14.1 // indirect
	github.com/go-playground/universal-translator v0.18.1 // indirect
	github.com/go-playground/validator/v10 v10.20.0 // indirect
	github.com/goccy/go-json v0.10.2 // indirect
	github.com/json-iterator/go v1.1.12 // indirect
	github.com/klauspost/cpuid/v2 v2.2.7 // indirect
	github.com/leodido/go-urn v1.4.0 // indirect
	github.com/mattn/go-isatty v0.0.20 // indirect
	github.com/modern-go/concurrent v0.0.0-20180306012644-bacd9c7ef1dd // indirect
	github.com/modern-go/reflect2 v1.0.2 // indirect
	github.com/pelletier/go-toml/v2 v2.2.2 // indirect
	github.com/twitchyliquid64/golang-asm v0.15.1 // indirect
	github.com/ugorji/go/codec v1.2.12 // indirect
	gitlab.com/Kira37/user-management v0.0.0-20240627093914-3daab9a07cf2
	go.uber.org/multierr v1.10.0 // indirect
	golang.org/x/arch v0.8.0 // indirect
	golang.org/x/net v0.25.0 // indirect
	golang.org/x/sys v0.20.0 // indirect
	golang.org/x/text v0.15.0 // indirect
	google.golang.org/protobuf v1.34.1 // indirect
	gopkg.in/yaml.v3 v3.0.1 // indirect
)
